module github.com/hyperledger/fabric

go 1.20

require (
	code.cloudfoundry.org/clock v1.0.0
	github.com/IBM/idemix v0.0.0-20220112103229-701e7610d405
	github.com/Knetic/govaluate v3.0.1-0.20171022003610-9aa49832a739+incompatible
	github.com/Shopify/sarama v1.20.1
	github.com/VictoriaMetrics/fastcache v1.9.0
	github.com/bits-and-blooms/bitset v1.2.1
	github.com/cheggaaa/pb v1.0.29
	github.com/davecgh/go-spew v1.1.1
	github.com/fsouza/go-dockerclient v1.7.3
	github.com/go-kit/kit v0.10.0
	github.com/golang/protobuf v1.5.3
	github.com/gorilla/handlers v1.5.1
	github.com/gorilla/mux v1.8.0
	github.com/grpc-ecosystem/go-grpc-middleware v1.3.0
	github.com/hashicorp/go-version v1.4.0
	github.com/hyperledger/fabric-config v0.1.0
	github.com/hyperledger/fabric-lib-go v1.0.0
	github.com/hyperledger/fabric-protos-go v0.2.0
	github.com/kr/pretty v0.3.1
	github.com/miekg/pkcs11 v1.1.1
	github.com/mitchellh/mapstructure v1.4.3
	github.com/onsi/ginkgo/v2 v2.1.3
	github.com/onsi/gomega v1.19.0
	github.com/pkg/errors v0.9.1
	github.com/prometheus/client_golang v1.11.1
	github.com/rcrowley/go-metrics v0.0.0-20201227073835-cf1acfcdf475
	github.com/spf13/cobra v1.1.3
	github.com/spf13/pflag v1.0.5
	github.com/spf13/viper v1.7.0
	github.com/stretchr/testify v1.8.1 // includes ErrorContains
	github.com/sykesm/zap-logfmt v0.0.4
	github.com/syndtr/goleveldb v1.0.1-0.20210305035536-64b5b1c73954
	github.com/tedsuo/ifrit v0.0.0-20220120221754-dd274de71113
	go.etcd.io/etcd/client/pkg/v3 v3.5.1
	go.etcd.io/etcd/raft/v3 v3.5.1
	go.etcd.io/etcd/server/v3 v3.5.1
	go.uber.org/zap v1.19.0
	golang.org/x/crypto v0.1.0
	golang.org/x/tools v0.1.12
	google.golang.org/grpc v1.48.0
	gopkg.in/alecthomas/kingpin.v2 v2.2.6
	gopkg.in/yaml.v2 v2.4.0
)

require (
	github.com/gogo/protobuf v1.3.2
	github.com/hyperledger/fabric-chaincode-go v0.0.0-20220920210243-7bc6fa0dd58b
	github.com/vechain/go-ecvrf v0.0.0-20220525125849-96fa0442e765
	google.golang.org/protobuf v1.32.0
)

require (
	github.com/Azure/go-ansiterm v0.0.0-20170929234023-d6e3b3328b78 // indirect
	github.com/DataDog/zstd v1.4.5 // indirect
	github.com/IBM/mathlib v0.0.0-20220112091634-0a7378db6912 // indirect
	github.com/Microsoft/go-winio v0.5.2 // indirect
	github.com/Microsoft/hcsshim v0.8.25 // indirect
	github.com/alecthomas/template v0.0.0-20190718012654-fb15b899a751 // indirect
	github.com/alecthomas/units v0.0.0-20210912230133-d1bdfacee922 // indirect
	github.com/beorn7/perks v1.0.1 // indirect
	github.com/cespare/xxhash/v2 v2.1.2 // indirect
	github.com/consensys/gnark-crypto v0.6.0 // indirect
	github.com/containerd/cgroups v1.0.3 // indirect
	github.com/containerd/containerd v1.5.18 // indirect
	github.com/decred/dcrd/dcrec/secp256k1/v4 v4.0.1 // indirect
	github.com/docker/docker v20.10.24+incompatible // indirect
	github.com/docker/go-connections v0.4.0 // indirect
	github.com/docker/go-units v0.5.0 // indirect
	github.com/dustin/go-humanize v1.0.0 // indirect
	github.com/eapache/go-resiliency v1.2.0 // indirect
	github.com/eapache/go-xerial-snappy v0.0.0-20180814174437-776d5712da21 // indirect
	github.com/eapache/queue v1.1.0 // indirect
	github.com/felixge/httpsnoop v1.0.1 // indirect
	github.com/fsnotify/fsnotify v1.4.9 // indirect
	github.com/go-logfmt/logfmt v0.5.1 // indirect
	github.com/golang/groupcache v0.0.0-20210331224755-41bb18bfe9da // indirect
	github.com/golang/snappy v0.0.4 // indirect
	github.com/hashicorp/hcl v1.0.0 // indirect
	github.com/hyperledger/fabric-amcl v0.0.0-20210603140002-2670f91851c8 // indirect
	github.com/inconshreveable/mousetrap v1.0.0 // indirect
	github.com/kr/text v0.2.0 // indirect
	github.com/magiconair/properties v1.8.1 // indirect
	github.com/mattn/go-runewidth v0.0.4 // indirect
	github.com/matttproud/golang_protobuf_extensions v1.0.4 // indirect
	github.com/mmcloughlin/addchain v0.4.0 // indirect
	github.com/moby/sys/mount v0.2.0 // indirect
	github.com/moby/sys/mountinfo v0.6.2 // indirect
	github.com/moby/term v0.0.0-20201216013528-df9cb8a40635 // indirect
	github.com/morikuni/aec v1.0.0 // indirect
	github.com/opencontainers/go-digest v1.0.0 // indirect
	github.com/opencontainers/image-spec v1.0.2 // indirect
	github.com/opencontainers/runc v1.1.5 // indirect
	github.com/pelletier/go-toml v1.8.1 // indirect
	github.com/pierrec/lz4 v2.6.0+incompatible // indirect
	github.com/pmezard/go-difflib v1.0.0 // indirect
	github.com/prometheus/client_model v0.3.0 // indirect
	github.com/prometheus/common v0.32.1 // indirect
	github.com/prometheus/procfs v0.8.0 // indirect
	github.com/rogpeppe/go-internal v1.9.0 // indirect
	github.com/sirupsen/logrus v1.9.0 // indirect
	github.com/spf13/afero v1.3.1 // indirect
	github.com/spf13/cast v1.3.1 // indirect
	github.com/spf13/jwalterweatherman v1.1.0 // indirect
	github.com/stretchr/objx v0.5.0 // indirect
	github.com/subosito/gotenv v1.2.0 // indirect
	go.etcd.io/etcd/pkg/v3 v3.5.1 // indirect
	go.opencensus.io v0.22.4 // indirect
	go.uber.org/atomic v1.7.0 // indirect
	go.uber.org/multierr v1.6.0 // indirect
	golang.org/x/mod v0.6.0-dev.0.20220419223038-86c51ed26bb4 // indirect
	golang.org/x/net v0.7.0 // indirect
	golang.org/x/sys v0.5.0 // indirect
	golang.org/x/text v0.7.0 // indirect
	google.golang.org/genproto v0.0.0-20220718134204-073382fd740c // indirect
	gopkg.in/ini.v1 v1.51.0 // indirect
	gopkg.in/yaml.v3 v3.0.1 // indirect
)

replace github.com/cespare/xxhash/v2 => github.com/cespare/xxhash/v2 v2.1.2 // fix for Go 1.17 in github.com/prometheus/client_golang dependency without updating protobuf
